<?xml version="1.0" encoding="UTF-8"?>
<CustomTab xmlns="http://soap.sforce.com/2006/04/metadata">
    <label>Azure1</label>
    <mobileReady>false</mobileReady>
    <motif>Custom70: Handsaw</motif>
    <page>My_page</page>
</CustomTab>
