<?xml version="1.0" encoding="UTF-8"?>
<CustomTab xmlns="http://soap.sforce.com/2006/04/metadata">
    <label>Community_Distributor</label>
    <mobileReady>false</mobileReady>
    <motif>Custom58: Caduceus</motif>
    <page>LCBS_Distributor_SignIn</page>
</CustomTab>
