<?xml version="1.0" encoding="UTF-8"?>
<CustomTab xmlns="http://soap.sforce.com/2006/04/metadata">
    <customObject>true</customObject>
    <description>DocuSign Status displays the metadata associated with a DocuSign Envelope.</description>
    <icon>dsfs__DocuSign_Images/dsfs__DS_64x64_gif.png</icon>
    <mobileReady>false</mobileReady>
    <motif>Custom107: TV Widescreen</motif>
</CustomTab>
