<?xml version="1.0" encoding="UTF-8"?>
<CustomTab xmlns="http://soap.sforce.com/2006/04/metadata">
    <description>for preparing questions</description>
    <label>preparation</label>
    <mobileReady>false</mobileReady>
    <motif>Custom55: Books</motif>
    <page>qb1</page>
</CustomTab>
